wavedata.vcd
$date
	Sun Jun 21 12:49:20 2020
$end
$version
	Icarus Verilog
$end
$timescale
	100ps
$end
$scope module testbench $end
$var wire 1 ! busywait $end
$var wire 8 " writedata [7:0] $end
$var wire 1 # write $end
$var wire 8 $ readdata [7:0] $end
$var wire 1 % read $end
$var wire 32 & pc [31:0] $end
$var wire 32 ' memwritedata [31:0] $end
$var wire 1 ( memwrite $end
$var wire 32 ) memreaddata [31:0] $end
$var wire 1 * memread $end
$var wire 1 + membusywait $end
$var wire 6 , memaddress [5:0] $end
$var wire 32 - instruction [31:0] $end
$var wire 128 . imemreaddata [127:0] $end
$var wire 1 / imemread $end
$var wire 1 0 imembusywait $end
$var wire 6 1 imemaddress [5:0] $end
$var wire 1 2 ibusywait $end
$var wire 1 3 dbusywait $end
$var wire 8 4 aluresult [7:0] $end
$var reg 1 5 clk $end
$var reg 1 6 iread $end
$var reg 1 7 reset $end
$scope module my_cache $end
$var wire 1 5 clock $end
$var wire 1 7 reset $end
$var wire 8 8 writedata [7:0] $end
$var wire 1 # write $end
$var wire 8 9 readdata [7:0] $end
$var wire 1 % read $end
$var wire 32 : mem_readdata [31:0] $end
$var wire 1 + mem_busywait $end
$var wire 8 ; address [7:0] $end
$var reg 1 3 busywait $end
$var reg 1 < dirty $end
$var reg 1 = hit $end
$var reg 3 > index [2:0] $end
$var reg 6 ? mem_address [5:0] $end
$var reg 1 * mem_read $end
$var reg 1 ( mem_write $end
$var reg 32 @ mem_writedata [31:0] $end
$var reg 3 A next_state [2:0] $end
$var reg 2 B offset [1:0] $end
$var reg 1 C readaccess $end
$var reg 3 D state [2:0] $end
$var reg 3 E tag [2:0] $end
$var reg 1 F tempbusywait $end
$var reg 1 G writeaccess $end
$var integer 32 H i [31:0] $end
$upscope $end
$scope module my_cpu $end
$var wire 8 I ALURESULTTOMEM [7:0] $end
$var wire 1 ! BUSYWAIT $end
$var wire 1 5 CLK $end
$var wire 8 J READDATA [7:0] $end
$var wire 1 7 RESET $end
$var wire 8 K WRITEDATA [7:0] $end
$var wire 8 L reg0_memory [7:0] $end
$var wire 8 M reg1_memory [7:0] $end
$var wire 8 N reg2_memory [7:0] $end
$var wire 8 O reg3_memory [7:0] $end
$var wire 8 P reg4_memory [7:0] $end
$var wire 8 Q reg5_memory [7:0] $end
$var wire 8 R reg6_memory [7:0] $end
$var wire 8 S reg7_memory [7:0] $end
$var wire 8 T w_writetoreg [7:0] $end
$var wire 32 U w_nextPC4Adder [31:0] $end
$var wire 32 V w_nextPC2Adder [31:0] $end
$var wire 32 W w_nextPC [31:0] $end
$var wire 8 X w_mux_immediate [7:0] $end
$var wire 8 Y w_mux_2s [7:0] $end
$var wire 1 Z w_ZERO $end
$var wire 3 [ w_WRITEREG [2:0] $end
$var wire 1 \ w_WRITEENABLE $end
$var wire 1 ] w_SIGNEXT $end
$var wire 3 ^ w_READREG2 [2:0] $end
$var wire 3 _ w_READREG1 [2:0] $end
$var wire 8 ` w_OUT2 [7:0] $end
$var wire 8 a w_OUT1 [7:0] $end
$var wire 1 b w_MEMWRITE $end
$var wire 1 c w_MEMTOREG $end
$var wire 1 d w_MEMREAD $end
$var wire 8 e w_IMMEDIATE [7:0] $end
$var wire 1 f w_BRANCH $end
$var wire 1 g w_ALUSRC $end
$var wire 8 h w_ALURESULT [7:0] $end
$var wire 3 i w_ALUOP [2:0] $end
$var wire 8 j w_2sOUT [7:0] $end
$var wire 32 k INSTRUCTION [31:0] $end
$var reg 1 % MEMREAD $end
$var reg 1 # MEMWRITE $end
$var reg 32 l PC [31:0] $end
$var reg 1 m r_busywait $end
$scope module mux_2s $end
$var wire 1 ] SELECT $end
$var wire 8 n IN2 [7:0] $end
$var wire 8 o IN1 [7:0] $end
$var reg 8 p OUT [7:0] $end
$upscope $end
$scope module mux_immediate $end
$var wire 8 q IN1 [7:0] $end
$var wire 8 r IN2 [7:0] $end
$var wire 1 g SELECT $end
$var reg 8 s OUT [7:0] $end
$upscope $end
$scope module mux_pc $end
$var wire 1 t SELECT $end
$var wire 32 u IN2 [31:0] $end
$var wire 32 v IN1 [31:0] $end
$var reg 32 w OUT [31:0] $end
$upscope $end
$scope module mux_writetoreg $end
$var wire 8 x IN2 [7:0] $end
$var wire 1 c SELECT $end
$var wire 8 y IN1 [7:0] $end
$var reg 8 z OUT [7:0] $end
$upscope $end
$scope module my_2s_complement_unit $end
$var wire 8 { IN [7:0] $end
$var reg 8 | OUT [7:0] $end
$upscope $end
$scope module my_alu_unit $end
$var wire 8 } DATA2 [7:0] $end
$var wire 1 Z ZERO $end
$var wire 8 ~ w_rotate_out [7:0] $end
$var wire 8 !" w_right_out [7:0] $end
$var wire 8 "" w_left_out [7:0] $end
$var wire 8 #" w_arithematic_out [7:0] $end
$var wire 3 $" SELECT [2:0] $end
$var wire 8 %" DATA1 [7:0] $end
$var reg 8 &" RESULT [7:0] $end
$scope module alu_arithematic_shift $end
$var wire 1 '" BIT $end
$var wire 3 (" SHIFT [2:0] $end
$var wire 8 )" w_level2_out [7:0] $end
$var wire 8 *" w_level1_out [7:0] $end
$var wire 8 +" OUT [7:0] $end
$var wire 8 ," IN [7:0] $end
$scope module level1_mux8 $end
$var wire 8 -" IN1 [7:0] $end
$var wire 1 ." SELECT $end
$var wire 8 /" IN2 [7:0] $end
$var reg 8 0" OUT [7:0] $end
$upscope $end
$scope module level2_mux8 $end
$var wire 8 1" IN1 [7:0] $end
$var wire 8 2" IN2 [7:0] $end
$var wire 1 3" SELECT $end
$var reg 8 4" OUT [7:0] $end
$upscope $end
$scope module level3_mux8 $end
$var wire 8 5" IN1 [7:0] $end
$var wire 8 6" IN2 [7:0] $end
$var wire 1 7" SELECT $end
$var reg 8 8" OUT [7:0] $end
$upscope $end
$upscope $end
$scope module alu_left_shift $end
$var wire 3 9" SHIFT [2:0] $end
$var wire 8 :" w_level2_out [7:0] $end
$var wire 8 ;" w_level1_out [7:0] $end
$var wire 8 <" OUT [7:0] $end
$var wire 8 =" IN [7:0] $end
$scope module level1_mux8 $end
$var wire 8 >" IN1 [7:0] $end
$var wire 1 ?" SELECT $end
$var wire 8 @" IN2 [7:0] $end
$var reg 8 A" OUT [7:0] $end
$upscope $end
$scope module level2_mux8 $end
$var wire 8 B" IN1 [7:0] $end
$var wire 8 C" IN2 [7:0] $end
$var wire 1 D" SELECT $end
$var reg 8 E" OUT [7:0] $end
$upscope $end
$scope module level3_mux8 $end
$var wire 8 F" IN1 [7:0] $end
$var wire 8 G" IN2 [7:0] $end
$var wire 1 H" SELECT $end
$var reg 8 I" OUT [7:0] $end
$upscope $end
$upscope $end
$scope module alu_right_rotate $end
$var wire 8 J" OUT [7:0] $end
$var wire 3 K" SHIFT [2:0] $end
$var wire 8 L" w_right_shift_out [7:0] $end
$var wire 8 M" w_left_shift_out [7:0] $end
$var wire 8 N" IN [7:0] $end
$scope module left_shifter $end
$var wire 3 O" SHIFT [2:0] $end
$var wire 8 P" w_level2_out [7:0] $end
$var wire 8 Q" w_level1_out [7:0] $end
$var wire 8 R" OUT [7:0] $end
$var wire 8 S" IN [7:0] $end
$scope module level1_mux8 $end
$var wire 8 T" IN1 [7:0] $end
$var wire 1 U" SELECT $end
$var wire 8 V" IN2 [7:0] $end
$var reg 8 W" OUT [7:0] $end
$upscope $end
$scope module level2_mux8 $end
$var wire 8 X" IN1 [7:0] $end
$var wire 8 Y" IN2 [7:0] $end
$var wire 1 Z" SELECT $end
$var reg 8 [" OUT [7:0] $end
$upscope $end
$scope module level3_mux8 $end
$var wire 8 \" IN1 [7:0] $end
$var wire 8 ]" IN2 [7:0] $end
$var wire 1 ^" SELECT $end
$var reg 8 _" OUT [7:0] $end
$upscope $end
$upscope $end
$scope module right_shifter $end
$var wire 1 `" BIT $end
$var wire 3 a" SHIFT [2:0] $end
$var wire 8 b" w_level2_out [7:0] $end
$var wire 8 c" w_level1_out [7:0] $end
$var wire 8 d" OUT [7:0] $end
$var wire 8 e" IN [7:0] $end
$scope module level1_mux8 $end
$var wire 8 f" IN1 [7:0] $end
$var wire 1 g" SELECT $end
$var wire 8 h" IN2 [7:0] $end
$var reg 8 i" OUT [7:0] $end
$upscope $end
$scope module level2_mux8 $end
$var wire 8 j" IN1 [7:0] $end
$var wire 8 k" IN2 [7:0] $end
$var wire 1 l" SELECT $end
$var reg 8 m" OUT [7:0] $end
$upscope $end
$scope module level3_mux8 $end
$var wire 8 n" IN1 [7:0] $end
$var wire 8 o" IN2 [7:0] $end
$var wire 1 p" SELECT $end
$var reg 8 q" OUT [7:0] $end
$upscope $end
$upscope $end
$upscope $end
$scope module alu_right_shift $end
$var wire 1 r" BIT $end
$var wire 3 s" SHIFT [2:0] $end
$var wire 8 t" w_level2_out [7:0] $end
$var wire 8 u" w_level1_out [7:0] $end
$var wire 8 v" OUT [7:0] $end
$var wire 8 w" IN [7:0] $end
$scope module level1_mux8 $end
$var wire 8 x" IN1 [7:0] $end
$var wire 1 y" SELECT $end
$var wire 8 z" IN2 [7:0] $end
$var reg 8 {" OUT [7:0] $end
$upscope $end
$scope module level2_mux8 $end
$var wire 8 |" IN1 [7:0] $end
$var wire 8 }" IN2 [7:0] $end
$var wire 1 ~" SELECT $end
$var reg 8 !# OUT [7:0] $end
$upscope $end
$scope module level3_mux8 $end
$var wire 8 "# IN1 [7:0] $end
$var wire 8 ## IN2 [7:0] $end
$var wire 1 $# SELECT $end
$var reg 8 %# OUT [7:0] $end
$upscope $end
$upscope $end
$upscope $end
$scope module my_decode_unit $end
$var wire 1 f BRANCH $end
$var wire 1 d MEMREAD $end
$var wire 1 c MEMTOREG $end
$var wire 1 b MEMWRITE $end
$var wire 1 \ WRITEENABLE $end
$var wire 1 ] SIGNEXT $end
$var wire 32 &# INSTRUCTION [31:0] $end
$var wire 1 g ALUSRC $end
$var wire 3 '# ALUOP [2:0] $end
$var reg 8 (# opcode [7:0] $end
$upscope $end
$scope module my_pc2_unit $end
$var wire 8 )# VALUE [7:0] $end
$var wire 32 *# w_sign_extende_value [31:0] $end
$var wire 32 +# NEXTADDRESS [31:0] $end
$var wire 32 ,# CURRENTADDRESS [31:0] $end
$upscope $end
$scope module my_pc_unit $end
$var wire 32 -# CURRENTADDRESS [31:0] $end
$var wire 8 .# VALUE [7:0] $end
$var wire 32 /# w_sign_extende_value [31:0] $end
$var wire 32 0# NEXTADDRESS [31:0] $end
$upscope $end
$scope module my_reg_file_unit $end
$var wire 1 5 CLK $end
$var wire 8 1# IN [7:0] $end
$var wire 3 2# INADDRESS [2:0] $end
$var wire 3 3# OUTADDRESS1 [2:0] $end
$var wire 3 4# OUTADDRESS2 [2:0] $end
$var wire 1 7 RESET $end
$var wire 1 \ WRITE $end
$var reg 8 5# OUT1 [7:0] $end
$var reg 8 6# OUT2 [7:0] $end
$var integer 32 7# i [31:0] $end
$upscope $end
$upscope $end
$scope module my_datamemory $end
$var wire 6 8# address [5:0] $end
$var wire 1 5 clock $end
$var wire 1 * read $end
$var wire 1 7 reset $end
$var wire 1 ( write $end
$var wire 32 9# writedata [31:0] $end
$var reg 1 + busywait $end
$var reg 1 :# readaccess $end
$var reg 32 ;# readdata [31:0] $end
$var reg 1 <# writeaccess $end
$var integer 32 =# i [31:0] $end
$upscope $end
$scope module my_icache $end
$var wire 1 5 clock $end
$var wire 10 ># pc [9:0] $end
$var wire 1 6 read $end
$var wire 1 7 reset $end
$var wire 3 ?# tag [2:0] $end
$var wire 4 @# offset [3:0] $end
$var wire 128 A# mem_readdata [127:0] $end
$var wire 1 0 mem_busywait $end
$var wire 32 B# instruction [31:0] $end
$var wire 3 C# index [2:0] $end
$var reg 1 2 busywait $end
$var reg 1 D# hit $end
$var reg 6 E# mem_address [5:0] $end
$var reg 1 / mem_read $end
$var reg 2 F# next_state [1:0] $end
$var reg 4 G# r_offset [3:0] $end
$var reg 3 H# r_tag [2:0] $end
$var reg 2 I# state [1:0] $end
$var reg 1 J# valid $end
$var integer 32 K# i [31:0] $end
$upscope $end
$scope module my_instruction_memory $end
$var wire 6 L# address [5:0] $end
$var wire 1 5 clock $end
$var wire 1 / read $end
$var reg 1 0 busywait $end
$var reg 32 M# capture_input [31:0] $end
$var reg 1 N# readaccess $end
$var reg 128 O# readdata [127:0] $end
$var integer 32 P# file_input [31:0] $end
$var integer 32 Q# k [31:0] $end
$var integer 32 R# scan_input [31:0] $end
$upscope $end
$upscope $end
$enddefinitions $end
#0
$dumpvars
b1 R#
b101100 Q#
b10000000000000000000000000000011 P#
bx O#
0N#
b1101000000001110000000000000001 M#
bx L#
b1000 K#
xJ#
b0 I#
bx H#
bx G#
b0 F#
bx E#
xD#
b111 C#
bx B#
bx A#
b1100 @#
b111 ?#
b1111111100 >#
b100000000 =#
0<#
bx ;#
0:#
bx 9#
bx 8#
bx 7#
bx 6#
bx 5#
bx 4#
bx 3#
bx 2#
bx 1#
bx 0#
b1 /#
b1 .#
b11111111111111111111111111111100 -#
bx ,#
bx +#
bx *#
bx )#
bx (#
bx '#
bx &#
bx %#
x$#
bx ##
b0xxxx "#
bx !#
x~"
bx }"
b0xxxxxx |"
bx {"
bx z"
xy"
b0xxxxxxx x"
bx w"
bx v"
bx u"
bx t"
bx s"
0r"
bx q"
xp"
bx o"
b0xxxx n"
bx m"
xl"
bx k"
b0xxxxxx j"
bx i"
bx h"
xg"
b0xxxxxxx f"
bx e"
bx d"
bx c"
bx b"
bx a"
0`"
bx _"
x^"
bx ]"
bx0000 \"
bx ["
xZ"
bx Y"
bx00 X"
bx W"
bx V"
xU"
bx0 T"
bx S"
bx R"
bx Q"
bx P"
bx O"
bx N"
bx M"
bx L"
bx K"
bx J"
bx I"
xH"
bx G"
bx0000 F"
bx E"
xD"
bx C"
bx00 B"
bx A"
bx @"
x?"
bx0 >"
bx ="
bx <"
bx ;"
bx :"
bx 9"
bx 8"
x7"
bx 6"
bx 5"
bx 4"
x3"
bx 2"
bx 1"
bx 0"
bx /"
x."
bx -"
bx ,"
bx +"
bx *"
bx )"
bx ("
x'"
bx &"
bx %"
bx $"
bx #"
bx ""
bx !"
bx ~
bx }
bx |
bx {
bx z
bx y
bx x
bx w
bx v
bx u
xt
bx s
bx r
bx q
bx p
bx o
bx n
0m
b11111111111111111111111111111100 l
bx k
bx j
bx i
bx h
xg
xf
bx e
xd
xc
xb
bx a
bx `
bx _
bx ^
x]
x\
bx [
xZ
bx Y
bx X
bx W
bx V
bx U
bx T
bx S
bx R
bx Q
bx P
bx O
bx N
bx M
bx L
bx K
bx J
bx I
b1000 H
0G
0F
bx E
b0 D
0C
bx B
b0 A
bx @
bx ?
bx >
0=
0<
bx ;
bx :
bx 9
bx 8
17
06
05
bx 4
03
02
bx 1
00
0/
bx .
bx -
bx ,
0+
0*
bx )
0(
bx '
b11111111111111111111111111111100 &
x%
bx $
x#
bx "
0!
$end
#10
b0 W
b0 w
b0 [
b0 2#
b0 ^
b0 4#
b0 _
b0 3#
b0 e
b0 r
b0 *#
b0 )#
b0 -
b0 k
b0 &#
b0 B#
b0 V
b0 v
b0 ,#
b0 0#
#20
b0 S
b0 R
b0 Q
b0 P
b0 O
b0 N
b0 M
b0 L
0t
1b
0#
0%
0f
0c
0d
0\
0]
0g
b0 i
b0 $"
b0 '#
b0 (#
b1000 7#
#30
b0 U
b0 u
b0 +#
#40
b0 ~
b0 J"
b0 M"
b0 R"
b0 _"
b0 ""
b0 <"
b0 I"
b0 !"
b0 v"
b0 %#
b0 #"
b0 +"
b0 8"
b0 L"
b0 d"
b0 q"
b0 \"
b0 F"
b0 "#
b0 n"
b0 P"
b0 ["
b0 ]"
b0 :"
b0 E"
b0 G"
b0 t"
b0 !#
b0 ##
b0 )"
b0 4"
b0 6"
b0 b"
b0 m"
b0 o"
b0 X"
b0 B"
b0 |"
b0 j"
b0 Q"
b0 W"
b0 Y"
b0 ;"
b0 A"
b0 C"
b0 u"
b0 {"
b0 }"
b0 *"
b0 0"
b0 2"
b0 c"
b0 i"
b0 k"
1U"
1Z"
1^"
1?"
1D"
1H"
1y"
1~"
1$#
1."
13"
17"
1g"
1l"
1p"
b0 O"
b0 9"
b0 s"
b0 ("
b0 K"
b0 a"
b0 X
b0 s
b0 }
b0 Y
b0 p
b0 q
b0 x"
b0 f"
b0 T"
b0 >"
b0 -"
b0 1"
b0 5"
0'"
07
b0 `
b0 o
b0 {
b0 6#
b0 "
b0 8
b0 K
b0 a
b0 %"
b0 ,"
b0 /"
b0 ="
b0 @"
b0 N"
b0 S"
b0 V"
b0 e"
b0 h"
b0 w"
b0 z"
b0 5#
15
#50
b0 T
b0 z
b0 1#
1m
1!
12
b0 @#
b0 C#
b0 ?#
1Z
b0 >#
16
b0 j
b0 n
b0 |
b0 4
b0 ;
b0 I
b0 h
b0 y
b0 &"
b0 &
b0 l
b0 -#
#60
b100 W
b100 w
0J#
b0 H#
b0 G#
b0 E
b0 >
b0 B
b100 V
b100 v
b100 ,#
b100 0#
#70
b1 F#
b0 $
b0 9
b0 J
b0 x
0D#
#80
b100 U
b100 u
b100 +#
05
#120
1N#
10
b0 1
b0 E#
b0 L#
1/
b1 F#
b1 I#
15
#160
05
#200
15
#240
05
#280
15
#320
05
#360
15
#400
05
#440
15
#480
05
#520
15
#560
05
#600
15
bx00000101 .
bx00000101 A#
bx00000101 O#
#640
05
#680
15
#720
05
#760
15
#800
05
#840
15
#880
05
#920
15
#960
05
#1000
15
bx0000000000000101 .
bx0000000000000101 A#
bx0000000000000101 O#
#1040
05
#1080
15
#1120
05
#1160
15
#1200
05
#1240
15
#1280
05
#1320
15
#1360
05
#1400
15
bx000000000000000000000101 .
bx000000000000000000000101 A#
bx000000000000000000000101 O#
#1440
05
#1480
15
#1520
05
#1560
15
#1600
05
#1640
15
#1680
05
#1720
15
#1760
05
#1800
15
bx01101000000000000000000000000101 .
bx01101000000000000000000000000101 A#
bx01101000000000000000000000000101 O#
#1840
05
#1880
15
#1920
05
#1960
15
#2000
05
#2040
15
#2080
05
#2120
15
#2160
05
#2200
15
bx0000001101101000000000000000000000000101 .
bx0000001101101000000000000000000000000101 A#
bx0000001101101000000000000000000000000101 O#
#2240
05
#2280
15
#2320
05
#2360
15
#2400
05
#2440
15
#2480
05
#2520
15
#2560
05
#2600
15
bx000000000000001101101000000000000000000000000101 .
bx000000000000001101101000000000000000000000000101 A#
bx000000000000001101101000000000000000000000000101 O#
#2640
05
#2680
15
#2720
05
#2760
15
#2800
05
#2840
15
#2880
05
#2920
15
#2960
05
#3000
15
bx00000001000000000000001101101000000000000000000000000101 .
bx00000001000000000000001101101000000000000000000000000101 A#
bx00000001000000000000001101101000000000000000000000000101 O#
#3040
05
#3080
15
#3120
05
#3160
15
#3200
05
#3240
15
#3280
05
#3320
15
#3360
05
#3400
15
bx0110100000000001000000000000001101101000000000000000000000000101 .
bx0110100000000001000000000000001101101000000000000000000000000101 A#
bx0110100000000001000000000000001101101000000000000000000000000101 O#
#3440
05
#3480
15
#3520
05
#3560
15
#3600
05
#3640
15
#3680
05
#3720
15
#3760
05
#3800
15
bx000000010110100000000001000000000000001101101000000000000000000000000101 .
bx000000010110100000000001000000000000001101101000000000000000000000000101 A#
bx000000010110100000000001000000000000001101101000000000000000000000000101 O#
#3840
05
#3880
15
#3920
05
#3960
15
#4000
05
#4040
15
#4080
05
#4120
15
#4160
05
#4200
15
bx00000000000000010110100000000001000000000000001101101000000000000000000000000101 .
bx00000000000000010110100000000001000000000000001101101000000000000000000000000101 A#
bx00000000000000010110100000000001000000000000001101101000000000000000000000000101 O#
#4240
05
#4280
15
#4320
05
#4360
15
#4400
05
#4440
15
#4480
05
#4520
15
#4560
05
#4600
15
bx0000001000000000000000010110100000000001000000000000001101101000000000000000000000000101 .
bx0000001000000000000000010110100000000001000000000000001101101000000000000000000000000101 A#
bx0000001000000000000000010110100000000001000000000000001101101000000000000000000000000101 O#
#4640
05
#4680
15
#4720
05
#4760
15
#4800
05
#4840
15
#4880
05
#4920
15
#4960
05
#5000
15
bx111000010000001000000000000000010110100000000001000000000000001101101000000000000000000000000101 .
bx111000010000001000000000000000010110100000000001000000000000001101101000000000000000000000000101 A#
bx111000010000001000000000000000010110100000000001000000000000001101101000000000000000000000000101 O#
#5040
05
#5080
15
#5120
05
#5160
15
#5200
05
#5240
15
#5280
05
#5320
15
#5360
05
#5400
15
bx00000010111000010000001000000000000000010110100000000001000000000000001101101000000000000000000000000101 .
bx00000010111000010000001000000000000000010110100000000001000000000000001101101000000000000000000000000101 A#
bx00000010111000010000001000000000000000010110100000000001000000000000001101101000000000000000000000000101 O#
#5440
05
#5480
15
#5520
05
#5560
15
#5600
05
#5640
15
#5680
05
#5720
15
#5760
05
#5800
15
bx0000000000000010111000010000001000000000000000010110100000000001000000000000001101101000000000000000000000000101 .
bx0000000000000010111000010000001000000000000000010110100000000001000000000000001101101000000000000000000000000101 A#
bx0000000000000010111000010000001000000000000000010110100000000001000000000000001101101000000000000000000000000101 O#
#5840
05
#5880
15
#5920
05
#5960
15
#6000
05
#6040
15
#6080
05
#6120
15
#6160
05
#6200
15
bx000000110000000000000010111000010000001000000000000000010110100000000001000000000000001101101000000000000000000000000101 .
bx000000110000000000000010111000010000001000000000000000010110100000000001000000000000001101101000000000000000000000000101 A#
bx000000110000000000000010111000010000001000000000000000010110100000000001000000000000001101101000000000000000000000000101 O#
#6240
05
#6280
15
#6320
05
#6360
15
#6400
05
#6440
15
#6480
05
#6520
15
#6560
05
#6600
b10 I#
b0 F#
0/
15
0N#
00
b11110001000000110000000000000010111000010000001000000000000000010110100000000001000000000000001101101000000000000000000000000101 .
b11110001000000110000000000000010111000010000001000000000000000010110100000000001000000000000001101101000000000000000000000000101 A#
b11110001000000110000000000000010111000010000001000000000000000010110100000000001000000000000001101101000000000000000000000000101 O#
#6620
b101 ^
b101 4#
b101 e
b101 r
b1101000000000000000000000000101 -
b1101000000000000000000000000101 k
b1101000000000000000000000000101 &#
b1101000000000000000000000000101 B#
1D#
#6630
0U"
0Z"
0?"
0H"
0y"
0$#
0."
07"
0g"
0p"
b11 O"
b101 9"
b101 s"
b101 ("
b101 K"
b101 a"
b101 X
b101 s
b101 }
0t
0b
0f
1\
1g
b1101000 (#
#6640
b101 T
b101 z
b101 1#
0Z
b101 4
b101 ;
b101 I
b101 h
b101 y
b101 &"
05
#6650
b1 >
b1 B
#6680
0m
06
0!
b0 F#
b0 I#
02
0D#
15
#6690
1m
1!
12
b100 @#
b1 F#
b100 >#
16
b101 L
b100 &
b100 l
b100 -#
#6700
1Z"
0^"
0D"
1H"
0~"
1$#
03"
17"
0l"
1p"
b101 O"
b11 9"
b11 s"
b11 ("
b11 K"
b11 a"
b11 X
b11 s
b11 }
b1000 W
b1000 w
b1 [
b1 2#
b11 ^
b11 4#
b11 e
b11 r
b1 *#
b1 )#
b1101000000000010000000000000011 -
b1101000000000010000000000000011 k
b1101000000000010000000000000011 &#
b1101000000000010000000000000011 B#
b101 G#
b1000 V
b1000 v
b1000 ,#
b1000 0#
#6710
b10100000 ~
b10100000 J"
b10100000 M"
b10100000 R"
b10100000 _"
b101000 ""
b101000 <"
b101000 I"
b10100000 \"
b10000000 F"
b1010 P"
b1010 ["
b1010 ]"
b101000 :"
b101000 E"
b101000 G"
b101000 X"
b101000 B"
b10 u"
b10 {"
b10 }"
b10 c"
b10 i"
b10 k"
b1010 Q"
b1010 W"
b1010 Y"
b1010 ;"
b1010 A"
b1010 C"
b10 *"
b10 0"
b10 2"
b10 x"
b10 f"
b1010 T"
b1010 >"
b10 -"
b11 T
b11 z
b11 1#
b101 "
b101 8
b101 K
b101 a
b101 %"
b101 ,"
b101 /"
b101 ="
b101 @"
b101 N"
b101 S"
b101 V"
b101 e"
b101 h"
b101 w"
b101 z"
b101 5#
b0 F#
b11 4
b11 ;
b11 I
b11 h
b11 y
b11 &"
1D#
#6720
b0 >
b11 B
b1100 U
b1100 u
b1100 +#
05
#6760
0m
06
0!
b0 F#
02
0D#
15
#6770
1m
1!
12
b1000 @#
b1 F#
b1000 >#
16
b11 M
b1000 &
b1000 l
b1000 -#
#6780
b10000010 ~
b10000010 J"
b10000000 M"
b10000000 R"
b10000000 _"
b1010 ""
b1010 <"
b1010 I"
b10 !"
b10 v"
b10 %#
b10 #"
b10 +"
b10 8"
b10 L"
b10 d"
b10 q"
b10000000 \"
b10100000 F"
b101000 P"
b101000 ["
b101000 ]"
b1010 :"
b1010 E"
b1010 G"
b10 t"
b10 !#
b10 ##
b10 )"
b10 4"
b10 6"
b10 b"
b10 m"
b10 o"
0Z"
1D"
1~"
13"
1l"
b111 O"
b1 9"
b1 s"
b1 ("
b1 K"
b1 a"
b1 X
b1 s
b1 }
b1100 W
b1100 w
b10 [
b10 2#
b1 ^
b1 4#
b1 e
b1 r
b10 *#
b10 )#
b11100001000000100000000000000001 -
b11100001000000100000000000000001 k
b11100001000000100000000000000001 &#
b11100001000000100000000000000001 B#
b1100 V
b1100 v
b1100 ,#
b1100 0#
#6790
b101 ""
b101 <"
b101 I"
b101 !"
b101 v"
b101 %#
b101 #"
b101 +"
b101 8"
b101 L"
b101 d"
b101 q"
b1010000 F"
b101 :"
b101 E"
b101 G"
b101 t"
b101 !#
b101 ##
b101 )"
b101 4"
b101 6"
b101 b"
b101 m"
b101 o"
b10100 X"
b1010000 \"
b101 ~
b101 J"
b10100 B"
b1 |"
b1 1"
b1 j"
b101 Q"
b101 W"
b101 Y"
b101 P"
b101 ["
b101 ]"
b101 M"
b101 R"
b101 _"
b101 ;"
b101 A"
b101 C"
b101 u"
b101 {"
b101 }"
b101 *"
b101 0"
b101 2"
b101 c"
b101 i"
b101 k"
1U"
1Z"
1^"
1?"
1y"
1."
1g"
b0 O"
b0 9"
b0 s"
b0 ("
b0 K"
b0 a"
b0 X
b0 s
b0 }
b1 T
b1 z
b1 1#
0g
b1 i
b1 $"
b1 '#
b0 F#
b1 4
b1 ;
b1 I
b1 h
b1 y
b1 &"
b11100001 (#
1D#
#6800
b10100000 \"
b1010 P"
b1010 ["
b1010 ]"
b101000 ""
b101000 <"
b101000 I"
b0 !"
b0 v"
b0 %#
b0 #"
b0 +"
b0 8"
b0 L"
b0 d"
b0 q"
b101000 X"
b10100000 ~
b10100000 J"
b101000 B"
b10000000 F"
b0 |"
b0 1"
b0 j"
b1010 Q"
b1010 W"
b1010 Y"
b10100000 M"
b10100000 R"
b10100000 _"
b1010 ;"
b1010 A"
b1010 C"
b101000 :"
b101000 E"
b101000 G"
b10 u"
b10 {"
b10 }"
b0 t"
b0 !#
b0 ##
b10 *"
b10 0"
b10 2"
b0 )"
b0 4"
b0 6"
b10 c"
b10 i"
b10 k"
b0 b"
b0 m"
b0 o"
0U"
0^"
0?"
0D"
0y"
0~"
0."
03"
0g"
0l"
b101 O"
b11 9"
b11 s"
b11 ("
b11 K"
b11 a"
b11 X
b11 s
b11 }
b11 Y
b11 p
b11 q
b11 `
b11 o
b11 {
b11 6#
b1 B
b10100 U
b10100 u
b10100 +#
05
#6810
b1000 T
b1000 z
b1000 1#
b11111101 j
b11111101 n
b11111101 |
b1000 4
b1000 ;
b1000 I
b1000 h
b1000 y
b1000 &"
#6820
b10 >
b0 B
#6840
0m
06
0!
b0 F#
02
0D#
15
#6850
1m
1!
12
b1100 @#
b1 F#
b1100 >#
16
b1000 N
b1100 &
b1100 l
b1100 -#
#6860
b10000 W
b10000 w
b11 [
b11 2#
b10 ^
b10 4#
b10 e
b10 r
b11 *#
b11 )#
b11110001000000110000000000000010 -
b11110001000000110000000000000010 k
b11110001000000110000000000000010 &#
b11110001000000110000000000000010 B#
b10000 V
b10000 v
b10000 ,#
b10000 0#
#6870
b10000000 \"
b101000 ~
b101000 J"
b10100000 F"
b101000 P"
b101000 ["
b101000 ]"
b101000 M"
b101000 R"
b101000 _"
b1010 :"
b1010 E"
b1010 G"
b10100000 ""
b10100000 <"
b10100000 I"
b10 t"
b10 !#
b10 ##
b10 )"
b10 4"
b10 6"
b10 b"
b10 m"
b10 o"
0Z"
1^"
1D"
0H"
1~"
0$#
13"
07"
1l"
0p"
b11 O"
b101 9"
b101 s"
b101 ("
b101 K"
b101 a"
b11111101 X
b11111101 s
b11111101 }
b11111101 Y
b11111101 p
b11111101 q
1]
b0 F#
b11110001 (#
1D#
#6880
b1000 `
b1000 o
b1000 {
b1000 6#
b11100 U
b11100 u
b11100 +#
05
#6890
b1010000 F"
b101 M"
b101 R"
b101 _"
b101 :"
b101 E"
b101 G"
b101 t"
b101 !#
b101 ##
b101 )"
b101 4"
b101 6"
b101 b"
b101 m"
b101 o"
b10100 X"
b1010000 \"
b10100 B"
b1 |"
b1 1"
b1 j"
b101 ~
b101 J"
b101 Q"
b101 W"
b101 Y"
b101 P"
b101 ["
b101 ]"
b101 ;"
b101 A"
b101 C"
b101 ""
b101 <"
b101 I"
b101 u"
b101 {"
b101 }"
b101 !"
b101 v"
b101 %#
b101 *"
b101 0"
b101 2"
b101 #"
b101 +"
b101 8"
b101 c"
b101 i"
b101 k"
b101 L"
b101 d"
b101 q"
1U"
1Z"
1?"
1H"
1y"
1$#
1."
17"
1g"
1p"
b0 O"
b0 9"
b0 s"
b0 ("
b0 K"
b0 a"
b11111000 X
b11111000 s
b11111000 }
b11111000 Y
b11111000 p
b11111000 q
b10 T
b10 z
b10 1#
b11111000 j
b11111000 n
b11111000 |
b10 4
b10 ;
b10 I
b10 h
b10 y
b10 &"
#6900
b0 >
b10 B
#6910
b11111101 T
b11111101 z
b11111101 1#
b11111101 4
b11111101 ;
b11111101 I
b11111101 h
b11111101 y
b11111101 &"
#6920
0m
06
0!
b0 F#
02
0D#
b111 E
b111 >
b1 B
15
